{
  "version": "0.1",
  "language": "en",
  "words": [
    "commitlint",
    "koober",
    "Magick",
    "appicon",
    "appiconset",
    "pbxproj",
    "plopfile",
    "xcassets",
    "xcode",
    "xcodeproj",
    "itunes",
    "iphone",
    "ipad"
  ],
  "ignoreWords": [
    "postbuild",
    "subpackage",
    "SUBPACKAGELIST",
    "PKGJSON"
  ],
  "ignoreRegExpList": [
    "[a-z]+dpi"
  ],
  "flagWords": [],
  "ignorePaths": [
    "**/build/**",
    "**/lib/**",
    "**/node_modules/**",
    "**/package.json",
    "**/package-lock.json",
    "**/yarn.lock",
    "**/*.log",
    "**/CHANGELOG.md",
    "coverage/**",
    "**/tsconfig.*"
  ]
}
